<?xml version="1.0" encoding="UTF-8" standalone="no"?>

<svg
   xmlns:dc="http://purl.org/dc/elements/1.1/"
   xmlns:cc="http://creativecommons.org/ns#"
   xmlns:rdf="http://www.w3.org/1999/02/22-rdf-syntax-ns#"
   xmlns:svg="http://www.w3.org/2000/svg"
   xmlns="http://www.w3.org/2000/svg"
   xmlns:sodipodi="http://sodipodi.sourceforge.net/DTD/sodipodi-0.dtd"
   xmlns:inkscape="http://www.inkscape.org/namespaces/inkscape"
   width="250"
   height="250"
   enable-background="new 0 0 380 380"
   version="1.1"
   viewBox="0 0 250 250"
   xml:space="preserve"
   id="svg114"
   sodipodi:docname="banner_buster.svg"
   inkscape:version="0.92.4 (5da689c313, 2019-01-14)"><sodipodi:namedview
   pagecolor="#ffffff"
   bordercolor="#666666"
   borderopacity="1"
   objecttolerance="10"
   gridtolerance="10"
   guidetolerance="10"
   inkscape:pageopacity="0"
   inkscape:pageshadow="2"
   inkscape:window-width="1280"
   inkscape:window-height="959"
   id="namedview116"
   showgrid="false"
   inkscape:zoom="0.944"
   inkscape:cx="125"
   inkscape:cy="125"
   inkscape:window-x="0"
   inkscape:window-y="0"
   inkscape:window-maximized="1"
   inkscape:current-layer="svg114" /><metadata
   id="metadata2"><rdf:RDF><cc:Work
       rdf:about=""><dc:format>image/svg+xml</dc:format><dc:type
         rdf:resource="http://purl.org/dc/dcmitype/StillImage" /><dc:title></dc:title><cc:license
         rdf:resource="" /></cc:Work></rdf:RDF></metadata><defs
   id="defs12"><linearGradient
     id="linearGradient875-2"
     x1="535.66"
     x2="535.66"
     y1="-265.38"
     y2="297.17"
     gradientTransform="translate(-8.2958e-5 274.5)"
     gradientUnits="userSpaceOnUse"><stop
       stop-color="#0c1830"
       offset="0"
       id="stop4" /><stop
       stop-color="#5f7794"
       offset="1"
       id="stop6" /></linearGradient><clipPath
     id="clipPath984"><rect
       x="138.7"
       width="571.5"
       height="571.5"
       style="paint-order:markers stroke fill"
       id="rect9" /></clipPath></defs><g
   transform="translate(0,-130)"
   id="g14" /><g
   transform="matrix(.43745 0 0 .43745 -60.672 0)"
   clip-path="url(#clipPath984)"
   stroke-width="8.64"
   id="g32"><rect
     y="2.8422e-14"
     width="1083.7"
     height="571.5"
     enable-background="new"
     fill="url(#linearGradient875-2)"
     style="paint-order:normal"
     id="rect16" /><g
     fill="#fff"
     id="g30"><path
       transform="scale(.26458)"
       d="m0 0v2160h1969.7c71.313-111.33 107.65-242.02 81.646-375.95-25.588-168.12-176.23-285.53-335.95-317.25-208.69-37.352-432.72-11.018-627.94-109.58-338.64-155.45-527.19-566.49-429.99-924.97 41.821-173.28 147.66-324.64 287.32-432.26z"
       enable-background="new"
       opacity=".05"
       style="paint-order:normal"
       id="path18" /><path
       transform="scale(.26458)"
       d="m3200.9 1431.9c-805.38-1.4434-1279.9 366.23-1768.9 332.1-760.76-53.089-938.83 164.27-1432 295.3v100.7h4096v-646.14c-259.62 4.4909-557.21-78.991-876-81.863-6.3828-0.057-12.744-0.092-19.086-0.1035z"
       enable-background="new"
       opacity=".05"
       style="paint-order:normal"
       id="path20" /><path
       transform="scale(.26458)"
       d="m0 1367.1v792.9h4096v-316.49c-262.48-104.37-654.34-194.09-952-159.51-442.45 51.409-1383.7 449.64-2084 244-485.11-142.44-690.32-463.03-1060-560.9z"
       enable-background="new"
       opacity=".05"
       style="paint-order:normal"
       id="path22" /><path
       transform="scale(.26458)"
       d="m0 0v1245.3c236.85-9.3728 518.6-61.323 646.04-121.25 194.99-91.694 351.98-261.28 428.35-462.71 65.906-173.84 71.884-369.75 16.701-547.29-12.144-39.07-27.238-77.196-45.018-114.03z"
       enable-background="new"
       opacity=".05"
       style="paint-order:normal"
       id="path24" /><path
       transform="scale(.26458)"
       d="m0 0v890.07c148.48 31.133 300.36 45.964 452.06 43.537 371.62-5.9459 741.04-115.39 1055.9-312.84 131.35-82.361 254.25-180.12 396.14-242.6 141.57-62.347 299.15-87.285 453.25-73.824 154.11 13.461 304.49 65.093 435.52 147.33 262.05 164.47 439.64 451.47 485.69 757.41 14.567 96.787 17.116 196.64 50.912 288.5 40.684 110.58 124.77 201.65 223.34 266.2 98.571 64.551 211.3 104.46 325.33 134.16 71.662 18.668 144.87 33.768 217.83 49.49v-1947.4z"
       enable-background="new"
       opacity=".05"
       style="paint-order:normal"
       id="path26" /><path
       transform="scale(.26458)"
       d="m2786.3 0c-344.62 121.87-647.9 393.91-785.91 757.44-251.15 661.55 1110.1 943.97 791.45 171.62-272.15-659.74 697.62-249.66 1304.1 692.54v-1357c-92.206-45.051-229.63-120.89-447.04-229.14-26.241-13.065-52.866-24.864-79.811-35.438z"
       enable-background="new"
       opacity=".05"
       style="paint-order:normal"
       id="path28" /></g></g><text
   x="213.34459"
   y="108.37283"
   fill="#9ab0c9"
   font-family="sans-serif"
   font-size="8.3176px"
   letter-spacing="0px"
   stroke-width=".625"
   word-spacing="0px"
   style="line-height:1.25"
   xml:space="preserve"
   id="text38"><tspan
     x="213.34459"
     y="108.37283"
     stroke-width=".625"
     id="tspan36"><tspan
       x="213.34459"
       y="108.37283"
       fill="#9ab0c9"
       font-family="quicksand"
       font-size="23.104px"
       font-weight="bold"
       stroke-width=".625"
       id="tspan34">10</tspan></tspan></text>

<g
   transform="matrix(1.223 0 0 1.223 81.898 -35.772)"
   stroke-width=".81763"
   id="g60"><g
     stroke-width=".81763"
     id="g58"><g
       stroke-width=".81763"
       id="g56"><g
         fill="#f9f9f9"
         id="g52"><path
           d="m13.437 125.51c-0.045 0.047-0.045 7.506-0.138 9.453-0.092 1.574-0.232 4.957-3.568 4.957-3.429 0-4.263-3.939-4.541-5.652-0.324-1.9-0.324-3.477-0.324-4.17 0-2.225 0.139-8.436 5.375-8.436 1.576 0 2.456 0.465 3.151 0.834zm-13.437 5.469c0 13.066 6.951 13.066 7.97 13.066 2.873 0 4.727-1.576 5.514-4.309l0.093 4.123c0.881-0.047 1.761-0.139 3.197-0.139 0.51 0 0.926 0 1.298 0.047 0.371 0 0.741 0.045 1.158 0.092-0.741-1.482-1.297-4.818-1.297-12.049 0-7.043 0-18.951 0.602-22.566-1.667 0.789-3.105 1.299-6.256 1.576 1.251 1.344 1.251 2.039 1.251 8.154-0.879-0.277-1.992-0.602-3.892-0.602-8.294 1e-3 -9.638 7.23-9.638 12.607"
           id="path40" /><path
           d="m25.13 128.61c0.047-3.846 0.835-7.275 4.124-7.275 3.615 0 3.891 3.984 3.799 7.275zm12.51 0.465c0-5.422-1.065-10.752-7.923-10.752-9.452 0-9.452 10.475-9.452 12.697 0 9.406 4.216 13.113 11.306 13.113 3.149 0 4.68-0.461 5.514-0.695-0.046-1.668 0.185-2.734 0.465-4.17-0.975 0.604-2.226 1.391-5.006 1.391-7.229 0-7.322-6.582-7.322-8.852h12.328l0.09-2.732"
           id="path42" /><path
           d="m52.715 131.07c0 4.309-0.787 10.102-6.162 10.102-0.742 0-1.668-0.141-2.27-0.279-0.093-1.668-0.093-4.541-0.093-7.877 0-3.986 0.416-6.068 0.742-7.09 0.972-3.289 3.15-3.334 3.566-3.334 3.522 0 4.217 4.865 4.217 8.478zm-13.298 5.051c0 3.43 0 5.375-0.556 6.857 1.9 0.742 4.262 1.158 7.09 1.158 1.807 0 7.043 0 9.869-5.791 1.344-2.688 1.807-6.303 1.807-9.037 0-1.668-0.186-5.328-1.529-7.646-1.296-2.176-3.382-3.289-5.605-3.289-4.449 0-5.746 3.707-6.44 5.607 0-2.363 0.045-10.611 0.415-14.828-3.011 1.391-4.866 1.621-6.857 1.807 1.807 0.74 1.807 3.801 1.807 13.764v11.398"
           id="path44" /><path
           d="m66.535 143.86c-0.928-0.139-1.578-0.232-2.922-0.232-1.48 0-2.502 0.094-3.566 0.232 0.463-0.881 0.648-1.299 0.787-4.309 0.186-4.125 0.232-15.154-0.092-17.471-0.232-1.762-0.648-2.039-1.297-2.502 3.799-0.371 4.865-0.648 6.625-1.482-0.369 2.037-0.418 3.059-0.418 6.162-0.091 15.989-0.138 17.702 0.883 19.602"
           id="path46" /><path
           d="m81.373 130.74c-0.092 2.92-0.139 4.959-0.928 6.58-0.973 2.086-2.594 2.688-3.799 2.688-2.783 0-3.383-2.316-3.383-4.586 0-4.355 3.893-4.682 5.652-4.682zm-12.744 5.701c0 2.92 0.881 5.838 3.477 7.09 1.158 0.51 2.316 0.51 2.688 0.51 4.264 0 5.699-3.152 6.58-5.098-0.047 2.039 0 3.289 0.139 4.912 0.834-0.047 1.668-0.139 3.059-0.139 0.787 0 1.529 0.092 2.316 0.139-0.51-0.787-0.787-1.252-0.928-3.059-0.092-1.76-0.092-3.521-0.092-5.977l0.047-9.453c0-3.523-0.928-6.998-7.879-6.998-4.586 0-7.273 1.391-8.617 2.086 0.557 1.02 1.02 1.898 1.436 3.893 1.809-1.576 4.172-2.41 6.58-2.41 3.848 0 3.848 2.549 3.848 6.162-0.881-0.045-1.623-0.137-2.875-0.137-5.887 1e-3 -9.779 2.268-9.779 8.479"
           id="path48" /><path
           d="m108.06 139.27c0.047 1.576 0.047 3.244 0.695 4.588-1.021-0.092-1.623-0.232-3.521-0.232-1.113 0-1.715 0.094-2.596 0.232 0.184-0.602 0.279-0.834 0.371-1.623 0.139-1.064 0.232-4.633 0.232-5.885v-5.004c0-2.178 0-5.33-0.141-6.441-0.092-0.787-0.322-2.918-3.012-2.918-2.641 0-3.521 1.945-3.846 3.521-0.369 1.621-0.369 3.383-0.369 10.24 0.045 5.932 0.045 6.486 0.508 8.109-0.787-0.092-1.76-0.184-3.15-0.184-1.113 0-1.854 0.045-2.779 0.184 0.324-0.742 0.51-1.113 0.602-3.707 0.094-2.549 0.279-15.061-0.141-18.025-0.23-1.809-0.695-2.225-1.203-2.688 3.754-0.186 4.957-0.789 6.117-1.389v4.91c0.555-1.438 1.713-4.635 6.348-4.635 5.793 0 5.838 4.217 5.885 6.996v13.951"
           id="path50" /></g><path
         d="m66.926 111.53-3.838 3.836-3.836-3.836 3.836-3.836 3.838 3.836"
         fill="#9ab0c9"
         id="path54" /></g></g></g><g
   id="g112"><g
     transform="matrix(.76311 0 0 .76311 86.617 42.568)"
     fill="#9ab0c9"
     stroke-width="1.3104"
     id="g90"><g
       transform="translate(-93.766 42.315)"
       fill="#9ab0c9"
       stroke-width="1.3104"
       id="g88"><g
         fill="#9ab0c9"
         stroke-width="1.3104"
         id="g86"><path
           d="m51.986 57.297c-1.797 0.025 0.34 0.926 2.686 1.287 0.648-0.506 1.236-1.018 1.76-1.516-1.461 0.358-2.948 0.366-4.446 0.229"
           id="path62" /><path
           d="m61.631 54.893c1.07-1.477 1.85-3.094 2.125-4.766-0.24 1.192-0.887 2.221-1.496 3.307-3.359 2.115-0.316-1.256-2e-3 -2.537-3.612 4.546-0.496 2.726-0.627 3.996"
           id="path64" /><path
           d="m65.191 45.629c0.217-3.236-0.637-2.213-0.924-0.978 0.335 0.174 0.6 2.281 0.924 0.978"
           id="path66" /><path
           d="m45.172 1.399c0.959 0.172 2.072 0.304 1.916 0.533 1.049-0.23 1.287-0.442-1.916-0.533"
           id="path68" /><path
           d="m47.088 1.932-0.678 0.14 0.631-0.056 0.047-0.084"
           id="path70" /><path
           d="m76.992 46.856c0.107 2.906-0.85 4.316-1.713 6.812l-1.553 0.776c-1.271 2.468 0.123 1.567-0.787 3.53-1.984 1.764-6.021 5.52-7.313 5.863-0.943-0.021 0.639-1.113 0.846-1.541-2.656 1.824-2.131 2.738-6.193 3.846l-0.119-0.264c-10.018 4.713-23.934-4.627-23.751-17.371-0.107 0.809-0.304 0.607-0.526 0.934-0.517-6.557 3.028-13.143 9.007-15.832 5.848-2.895 12.704-1.707 16.893 2.197-2.301-3.014-6.881-6.209-12.309-5.91-5.317 0.084-10.291 3.463-11.951 7.131-2.724 1.715-3.04 6.611-4.227 7.507-1.597 11.737 3.004 16.808 10.787 22.773 1.225 0.826 0.345 0.951 0.511 1.58-2.586-1.211-4.954-3.039-6.901-5.277 1.033 1.512 2.148 2.982 3.589 4.137-2.438-0.826-5.695-5.908-6.646-6.115 4.203 7.525 17.052 13.197 23.78 10.383-3.113 0.115-7.068 0.064-10.566-1.229-1.469-0.756-3.467-2.322-3.11-2.615 9.182 3.43 18.667 2.598 26.612-3.771 2.021-1.574 4.229-4.252 4.867-4.289-0.961 1.445 0.164 0.695-0.574 1.971 2.014-3.248-0.875-1.322 2.082-5.609l1.092 1.504c-0.406-2.696 3.348-5.97 2.967-10.234 0.861-1.304 0.961 1.403 0.047 4.403 1.268-3.328 0.334-3.863 0.66-6.609 0.352 0.923 0.814 1.904 1.051 2.878-0.826-3.216 0.848-5.416 1.262-7.285-0.408-0.181-1.275 1.422-1.473-2.377 0.029-1.65 0.459-0.865 0.625-1.271-0.324-0.186-1.174-1.451-1.691-3.877 0.375-0.57 1.002 1.478 1.512 1.562-0.328-1.929-0.893-3.4-0.916-4.88-1.49-3.114-0.527 0.415-1.736-1.337-1.586-4.947 1.316-1.148 1.512-3.396 2.404 3.483 3.775 8.881 4.404 11.117-0.48-2.726-1.256-5.367-2.203-7.922 0.73 0.307-1.176-5.609 0.949-1.691-2.27-8.352-9.715-16.156-16.564-19.818 0.838 0.767 1.896 1.73 1.516 1.881-3.406-2.028-2.807-2.186-3.295-3.043-2.775-1.129-2.957 0.091-4.795 2e-3 -5.23-2.774-6.238-2.479-11.051-4.217l0.219 1.023c-3.465-1.154-4.037 0.438-7.782 4e-3 -0.228-0.178 1.2-0.644 2.375-0.815-3.35 0.442-3.193-0.66-6.471 0.122 0.808-0.567 1.662-0.942 2.524-1.424-2.732 0.166-6.522 1.59-5.352 0.295-4.456 1.988-12.37 4.779-16.811 8.943l-0.14-0.933c-2.035 2.443-8.874 7.296-9.419 10.46l-0.544 0.127c-1.059 1.793-1.744 3.825-2.584 5.67-1.385 2.36-2.03 0.908-1.833 1.278-2.724 5.523-4.077 10.164-5.246 13.97 0.833 1.245 0.02 7.495 0.335 12.497-1.368 24.704 17.338 48.69 37.785 54.228 2.997 1.072 7.454 1.031 11.245 1.141-4.473-1.279-5.051-0.678-9.408-2.197-3.143-1.48-3.832-3.17-6.058-5.102l0.881 1.557c-4.366-1.545-2.539-1.912-6.091-3.037l0.941-1.229c-1.415-0.107-3.748-2.385-4.386-3.646l-1.548 0.061c-1.86-2.295-2.851-3.949-2.779-5.23l-0.5 0.891c-0.567-0.973-6.843-8.607-3.587-6.83-0.605-0.553-1.409-0.9-2.281-2.484l0.663-0.758c-1.567-2.016-2.884-4.6-2.784-5.461 0.836 1.129 1.416 1.34 1.99 1.533-3.957-9.818-4.179-0.541-7.176-9.994l0.634-0.051c-0.486-0.732-0.781-1.527-1.172-2.307l0.276-2.75c-2.849-3.294-0.797-14.006-0.386-19.881 0.285-2.389 2.378-4.932 3.97-8.92l-0.97-0.167c1.854-3.234 10.586-12.988 14.63-12.486 1.959-2.461-0.389-9e-3 -0.772-0.629 4.303-4.453 5.656-3.146 8.56-3.947 3.132-1.859-2.688 0.725-1.203-0.709 5.414-1.383 3.837-3.144 10.9-3.846 0.745 0.424-1.729 0.655-2.35 1.205 4.511-2.207 14.275-1.705 20.617 1.225 7.359 3.439 15.627 13.605 15.953 23.17l0.371 0.1c-0.188 3.802 0.582 8.199-0.752 12.238l0.908-1.912"
           id="path72" /><path
           d="m32.372 59.764-0.252 1.26c1.181 1.604 2.118 3.342 3.626 4.596-1.085-2.118-1.891-2.993-3.374-5.856"
           id="path74" /><path
           d="m35.164 59.654c-0.625-0.691-0.995-1.523-1.409-2.352 0.396 1.457 1.207 2.709 1.962 3.982l-0.553-1.63"
           id="path76" /><path
           d="m84.568 48.916-0.264 0.662c-0.484 3.438-1.529 6.84-3.131 9.994 1.77-3.328 2.915-6.968 3.395-10.656"
           id="path78" /><path
           d="m45.527 0.537c1.215-0.445 2.987-0.244 4.276-0.537-1.68 0.141-3.352 0.225-5.003 0.438l0.727 0.099"
           id="path80" /><path
           d="m2.872 23.219c0.28 2.592-1.95 3.598 0.494 1.889 1.31-2.951-0.512-0.815-0.494-1.889"
           id="path82" /><path
           d="m0 35.215c0.563-1.728 0.665-2.766 0.88-3.766-1.556 1.989-0.716 2.413-0.88 3.766"
           id="path84" /></g></g></g><g
     letter-spacing="0px"
     word-spacing="0px"
     id="g110"><text
   x="56.636166"
   y="174.6539"
   fill="#17243b"
   font-family="quicksand"
   font-size="30.445px"
   font-weight="300"
   style="line-height:1.25"
   xml:space="preserve"
   id="text96"><tspan
     x="56.636166"
     y="174.6539"
     id="tspan94"><tspan
       x="56.636166"
       y="174.6539"
       fill="#17243b"
       font-family="quicksand"
       font-size="48.712px"
       font-weight="bold"
       id="tspan92">Buster</tspan></tspan></text>

<text
   x="16.953157"
   y="233.30562"
   fill="#17243b"
   font-family="quicksand"
   font-size="30.445px"
   font-weight="300"
   style="line-height:1.25"
   xml:space="preserve"
   id="text102"><tspan
     x="16.953157"
     y="233.30562"
     id="tspan100"><tspan
       x="16.953157"
       y="233.30562"
       fill="#17243b"
       font-family="quicksand"
       font-size="21.333px"
       font-weight="bold"
       id="tspan98">https://deb.li/buster</tspan></tspan></text>

<text
   x="62.558739"
   y="32.818417"
   fill="#9ab0c9"
   font-family="sans-serif"
   font-size="8.3176px"
   stroke-width=".625"
   style="line-height:1.25"
   xml:space="preserve"
   id="text108"><tspan
     x="62.558739"
     y="32.818417"
     stroke-width=".625"
     id="tspan106"><tspan
       x="62.558739"
       y="32.818417"
       fill="#9ab0c9"
       font-family="quicksand"
       font-size="24px"
       font-weight="bold"
       stroke-width=".625"
       id="tspan104">2019-07-06</tspan></tspan></text>

</g></g></svg>
